D:\Desktop\robot_11\src\main\java\ru\sviridoff\bots\telebot\models\Countries.java
D:\Desktop\robot_11\src\main\java\ru\sviridoff\bots\telebot\exception\HttpRequestError.java
D:\Desktop\robot_11\src\main\java\ru\sviridoff\bots\telebot\handlers\BaseHandler.java
D:\Desktop\robot_11\src\main\java\ru\sviridoff\bots\telebot\models\CountryInfo.java
D:\Desktop\robot_11\src\main\java\ru\sviridoff\bots\telebot\provider\ConfigProvider.java
D:\Desktop\robot_11\src\main\java\ru\sviridoff\bots\telebot\Covid19TelegramBots.java
D:\Desktop\robot_11\src\main\java\ru\sviridoff\bots\telebot\models\World.java
D:\Desktop\robot_11\src\main\java\ru\sviridoff\bots\telebot\models\Base.java
D:\Desktop\robot_11\src\main\java\ru\sviridoff\bots\telebot\TeleBot\CovidBot.java
D:\Desktop\robot_11\src\main\java\ru\sviridoff\bots\telebot\models\Country.java
